<?xml version="1.0" encoding="iso-8859-1"?>
<!-- Generator: Adobe Illustrator 19.0.0, SVG Export Plug-In . SVG Version: 6.00 Build 0)  -->
<svg xmlns="http://www.w3.org/2000/svg" xmlns:xlink="http://www.w3.org/1999/xlink" version="1.1" id="Layer_1" x="0px" y="0px" viewBox="0 0 512.002 512.002" style="enable-background:new 0 0 512.002 512.002;" xml:space="preserve" width="512px" height="512px">
<g>
	<g>
		<g>
			<path d="M435.457,443.735h-0.085c-4.71,0-8.491,3.823-8.491,8.533c0,4.71,3.866,8.533,8.576,8.533     c4.719,0,8.533-3.823,8.533-8.533C443.99,447.558,440.176,443.735,435.457,443.735z" fill="#FFFFFF"/>
			<path d="M307.201,204.802c-4.71,0-8.525,3.814-8.533,8.525c0,4.71,3.814,8.533,8.525,8.542     c9.267,0.017,24.192,2.125,28.109,6.033c3.908,3.917,6.016,18.842,6.033,28.109c0.008,4.71,3.823,8.525,8.533,8.525     c4.719-0.008,8.533-3.823,8.533-8.533c0-4.864-0.529-29.67-11.034-40.166C336.871,205.331,312.065,204.802,307.201,204.802z" fill="#FFFFFF"/>
			<path d="M351.941,162.391c-1.442-0.358-36.233-8.789-130.074-8.789s-128.631,8.431-129.835,8.73     c-25.429,5.615-42.411,22.519-49.109,48.93c-0.358,1.442-8.789,35.942-8.789,104.474s8.431,103.031,8.841,104.653     c7.1,25.975,23.04,41.899,48.819,48.691c1.442,0.358,36.233,8.789,130.074,8.789s128.631-8.431,129.715-8.713     c24.201-4.949,41.19-21.751,49.229-48.947c0.358-1.442,8.789-35.942,8.789-104.474s-8.431-103.031-8.721-104.175     C395.478,186.148,378.565,169.15,351.941,162.391z M384.351,415.712c-6.212,21-18.057,33.015-36.54,36.804     c-0.333,0.085-34.773,8.286-125.943,8.286s-125.611-8.201-125.824-8.252c-19.814-5.222-31.104-16.529-36.565-36.471     c-0.077-0.341-8.277-34.21-8.277-100.343s8.201-100.002,8.269-100.301c5.146-20.275,16.998-32.188,36.454-36.48     c0.333-0.085,34.773-8.286,125.943-8.286s125.611,8.201,125.901,8.269c20.437,5.188,32.35,17.024,36.488,36.454     c0.077,0.341,8.277,34.21,8.277,100.343C392.534,381.843,384.342,415.712,384.351,415.712z" fill="#FFFFFF"/>
			<path d="M349.868,281.602c-4.71,0-8.533,3.823-8.533,8.533v8.533c0,4.71,3.823,8.533,8.533,8.533s8.533-3.823,8.533-8.533v-8.533     C358.401,285.425,354.578,281.602,349.868,281.602z" fill="#FFFFFF"/>
			<path d="M200.099,75.633c-3.968,4.224-7.569,8.832-10.539,13.961c-2.364,4.079-0.973,9.293,3.106,11.656     c4.087,2.364,9.293,0.973,11.657-3.106c10.675-18.423,30.481-29.875,51.678-29.875c21.197,0,41.003,11.452,51.678,29.875     c1.579,2.731,4.446,4.258,7.39,4.258c1.451,0,2.918-0.367,4.267-1.152c4.079-2.364,5.47-7.578,3.106-11.656     c-2.97-5.129-6.571-9.737-10.539-13.961l61.065-61.065c3.337-3.337,3.337-8.73,0-12.066c-3.337-3.336-8.73-3.336-12.066,0     l-62.054,62.046c-12.501-8.457-27.341-13.346-42.846-13.346s-30.345,4.89-42.846,13.346L151.101,2.502     c-3.337-3.336-8.73-3.336-12.066,0c-3.337,3.337-3.337,8.73,0,12.066L200.099,75.633z" fill="#FFFFFF"/>
			<path d="M452.268,221.869c14.114,0,25.6-11.486,25.6-25.6s-11.486-25.6-25.6-25.6c-14.114,0-25.6,11.486-25.6,25.6     S438.154,221.869,452.268,221.869z M452.268,187.735c4.702,0,8.533,3.831,8.533,8.533c0,4.702-3.831,8.533-8.533,8.533     c-4.702,0-8.533-3.831-8.533-8.533C443.734,191.567,447.566,187.735,452.268,187.735z" fill="#FFFFFF"/>
			<path d="M469.59,341.336h-0.085c-4.71,0-8.491,3.823-8.491,8.533s3.866,8.533,8.576,8.533c4.719,0,8.533-3.823,8.533-8.533     S474.309,341.336,469.59,341.336z" fill="#FFFFFF"/>
			<path d="M469.59,375.469h-0.085c-4.71,0-8.491,3.823-8.491,8.533s3.866,8.533,8.576,8.533c4.719,0,8.533-3.823,8.533-8.533     S474.309,375.469,469.59,375.469z" fill="#FFFFFF"/>
			<path d="M469.59,409.602h-0.085c-4.71,0-8.491,3.823-8.491,8.533s3.866,8.533,8.576,8.533c4.719,0,8.533-3.823,8.533-8.533     S474.309,409.602,469.59,409.602z" fill="#FFFFFF"/>
			<path d="M460.801,119.469h-409.6c-28.237,0-51.2,22.963-51.2,51.2v290.133c0,28.237,22.963,51.2,51.2,51.2h409.6     c28.237,0,51.2-22.963,51.2-51.2V170.669C512.001,142.432,489.038,119.469,460.801,119.469z M494.934,460.802     c0,18.825-15.309,34.133-34.133,34.133h-409.6c-18.825,0-34.133-15.309-34.133-34.133V170.669     c0-18.825,15.309-34.133,34.133-34.133h409.6c18.825,0,34.133,15.309,34.133,34.133V460.802z" fill="#FFFFFF"/>
			<path d="M469.59,443.735h-0.085c-4.71,0-8.491,3.823-8.491,8.533c0,4.71,3.866,8.533,8.576,8.533     c4.719,0,8.533-3.823,8.533-8.533C478.124,447.558,474.309,443.735,469.59,443.735z" fill="#FFFFFF"/>
			<path d="M435.457,409.602h-0.085c-4.71,0-8.491,3.823-8.491,8.533s3.866,8.533,8.576,8.533c4.719,0,8.533-3.823,8.533-8.533     S440.176,409.602,435.457,409.602z" fill="#FFFFFF"/>
			<path d="M435.457,375.469h-0.085c-4.71,0-8.491,3.823-8.491,8.533s3.866,8.533,8.576,8.533c4.719,0,8.533-3.823,8.533-8.533     S440.176,375.469,435.457,375.469z" fill="#FFFFFF"/>
			<path d="M477.868,264.535c0-14.114-11.486-25.6-25.6-25.6c-14.114,0-25.6,11.486-25.6,25.6s11.486,25.6,25.6,25.6     C466.382,290.135,477.868,278.65,477.868,264.535z M452.268,273.069c-4.702,0-8.533-3.831-8.533-8.533     c0-4.702,3.831-8.533,8.533-8.533c4.702,0,8.533,3.831,8.533,8.533C460.801,269.237,456.97,273.069,452.268,273.069z" fill="#FFFFFF"/>
			<path d="M435.457,341.336h-0.085c-4.71,0-8.491,3.823-8.491,8.533s3.866,8.533,8.576,8.533c4.719,0,8.533-3.823,8.533-8.533     S440.176,341.336,435.457,341.336z" fill="#FFFFFF"/>
		</g>
	</g>
</g>
<g>
</g>
<g>
</g>
<g>
</g>
<g>
</g>
<g>
</g>
<g>
</g>
<g>
</g>
<g>
</g>
<g>
</g>
<g>
</g>
<g>
</g>
<g>
</g>
<g>
</g>
<g>
</g>
<g>
</g>
</svg>
